PAC Analysis
…
PAC Analysis

Introduction

This project aims to examine the impact of foreign-connected Political Action Committee (PAC) donations on US politics from 2000 to 2024. Specifically, it will analyze the possible correlation between the contributions made by PACs affiliated with foreign companies or entities to Democratic and Republican seats in Congress to the presidential election results. The ultimate goal is to determine whether there is a relationship between Foreign PAC Donations and US political results, and if so, to understand the extent to which such donations influence political outcomes and partisan dynamics in the United States.

Data Methodology

OpenSecrets

For OpenSecrets Dataset (Raw: 2636 Rows; No NAs; Predictors: PAC Donation amount):

# A tibble: 2,636 × 6
   `PAC Name (Affiliate)`        Country of Origin/Pa…¹ Total Dems  Repubs  year
   <chr>                         <chr>                  <chr> <chr> <chr>  <dbl>
 1 7-Eleven                      Japan/Ito-Yokado       $8500 $1500 $7000   2000
 2 ABB Group                     Switzerland/Asea Brow… $460… $170… $28500  2000
 3 Accenture                     UK/Accenture plc       $759… $230… $52984  2000
 4 ACE INA                       UK/ACE Group           $385… $125… $26000  2000
 5 Acuson Corp (Siemens AG)      Germany/Siemens AG     $2000 $2000 $0      2000
 6 Adtranz (DaimlerChrysler)     Germany/DaimlerChrysl… $105… $100… $500    2000
 7 AE Staley Manufacturing (Tat… UK/Tate & Lyle         $240… $100… $14000  2000
 8 AEGON USA (AEGON NV)          Netherlands/Aegon NV   $582… $105… $47750  2000
 9 AIM Management Group          UK/AMVESCAP            $250… $100… $15000  2000
10 Air Liquide America           France/L'Air Liquide … $0    $0    $0      2000
# ℹ 2,626 more rows
# ℹ abbreviated name: ¹​`Country of Origin/Parent Company`

The dataset includes information on PAC donations from foreign-connected entities to US political parties from 2000 to 2024 (Initially in two-year intervals but was later combined).

It consists of columns such as PAC Name (Affiliate), Country of Origin/Parent Company, Total donation amount, and amounts donated to Democratic and Republican parties. Each row represents a different PAC donation entry, detailing the contribution amounts and affiliations.

Data types in the dataset include strings for PAC names and countries of origin and integers or floats for donation amounts.

After some data wrangling and processing, the ultiamte PAC dataset that will be analyze upon looks like following:

# A tibble: 286 × 5
   country   dems_sum repubs_sum total_sum year_cycle
   <chr>        <dbl>      <dbl>     <dbl>      <dbl>
 1 Australia    61850     174000    235850       2000
 2 Australia    70019      42333    112352       2002
 3 Australia   137969     113498    252705       2004
 4 Australia    21088       8500     29588       2006
 5 Australia    25158      13750     38908       2008
 6 Australia    32376      17000     49376       2010
 7 Australia    53353      24500     77853       2012
 8 Australia    31655      44100     75755       2014
 9 Australia    39285      92200    131485       2016
10 Australia    35601     116506    152107       2018
# ℹ 276 more rows
…
